R-insights 📊📈🖥️ - TidyTuesday
…
lgbtq_movies

# A tibble: 7,165 × 12
       id title           original_title original_language overview release_date
    <dbl> <chr>           <chr>          <chr>             <chr>    <date>      
 1 860159 Crush           Crush          en                "When a… 2022-04-29  
 2 719088 Yes, No, or Ma… イエスかノー…  ja                "Kunied… 2020-12-11  
 3 632632 Given           映画 ギヴン    ja                "The fi… 2020-08-22  
 4 929477 Heart Shot      Heart Shot     en                "Teenag… 2022-02-17  
 5 197158 Porno           Pornô!         pt                "Three … 1981-01-01  
 6 398818 Call Me by You… Call Me by Yo… en                "In 198… 2017-09-01  
 7 591273 Fear Street: 1… Fear Street: … en                "After … 2021-07-02  
 8 424694 Bohemian Rhaps… Bohemian Rhap… en                "Singer… 2018-10-24  
 9  71672 Wrong Turn 4: … Wrong Turn 4:… en                "A grou… 2011-10-17  
10 205596 The Imitation … The Imitation… en                "Based … 2014-11-14  
# ℹ 7,155 more rows
# ℹ 6 more variables: popularity <dbl>, vote_average <dbl>, vote_count <dbl>,
#   adult <lgl>, video <lgl>, genre_ids <chr>
…
